%YAML 1.1
%TAG !u! tag:unity3d.com,2011:
--- !u!114 &11400000
MonoBehaviour:
  m_ObjectHideFlags: 0
  m_CorrespondingSourceObject: {fileID: 0}
  m_PrefabInstance: {fileID: 0}
  m_PrefabAsset: {fileID: 0}
  m_GameObject: {fileID: 0}
  m_Enabled: 1
  m_EditorHideFlags: 0
  m_Script: {fileID: 11500000, guid: 1733fca7cebfc7946bdfc373ae38c2e3, type: 3}
  m_Name: Knight
  m_EditorClassIdentifier: 
  health: 0
  mana: 0
  energy: 9
  resistance: 0
  physicDamage: 0
  spriteFront: {fileID: 21300000, guid: f5e2d8cee34fd1ff98af4d506823c776, type: 3}
  spriteBack: {fileID: 0}
  spriteSide: {fileID: 0}
